trinity/output/fpga/hello_fpga_verilator.vcd
$version Generated by VerilatedVcd $end
$timescale 1ps $end
 $scope module TOP $end
  $var wire 1 # clk $end
  $var wire 1 $ rst_n $end
  $var wire 4 % led [3:0] $end
  $scope module hello_fpga_led_top $end
   $var wire 1 # clk $end
   $var wire 1 $ rst_n $end
   $var wire 4 % led [3:0] $end
   $var wire 32 ( CLOCK_FREQ_HZ [31:0] $end
   $var wire 32 ) BLINK_FREQ_HZ [31:0] $end
   $var wire 32 * COUNTER_MAX [31:0] $end
   $var wire 32 + PHOENIX [31:0] $end
   $var wire 32 , TRINITY [31:0] $end
   $var wire 27 & counter [26:0] $end
   $var wire 1 ' led_state $end
   $var wire 64 - phi [63:0] $end
   $var wire 64 / phi_sq [63:0] $end
   $var wire 64 1 phi_inv_sq [63:0] $end
   $var wire 64 3 trinity_const [63:0] $end
   $var wire 32 5 phoenix_const [31:0] $end
   $scope module sacred_inst $end
    $var wire 64 - phi [63:0] $end
    $var wire 64 / phi_sq [63:0] $end
    $var wire 64 1 phi_inv_sq [63:0] $end
    $var wire 64 3 trinity [63:0] $end
    $var wire 32 5 phoenix [31:0] $end
   $upscope $end
  $upscope $end
 $upscope $end
$enddefinitions $end


#0
1#
0$
b0000 %
b000000000000000000000000000 &
0'
b00000101111101011110000100000000 (
b00000000000000000000000000000001 )
b00000010111110101111000001111111 *
b00000000000000000000001111100111 +
b00000000000000000000000000000011 ,
b0011111111111001111000110111011110011011100101111111010010101000 -
b0100000000000100111100011011101111001101110010111111001001010100 /
b0011111111011000011100100010110100001110010101100000010000011001 1
b0100000000001000000000000000000000000000000000000000000000000000 3
b00000000000000000000001111100111 5
#1
0#
#2
1#
#3
0#
#4
1#
#5
0#
#6
1#
#7
0#
#8
1#
#9
0#
#10
1#
1$
b000000000000000000000000001 &
#11
0#
#12
1#
b000000000000000000000000010 &
#13
0#
#14
1#
b000000000000000000000000011 &
#15
0#
#16
1#
b000000000000000000000000100 &
#17
0#
#18
1#
b000000000000000000000000101 &
#19
0#
#20
1#
b000000000000000000000000110 &
#21
0#
#22
1#
b000000000000000000000000111 &
#23
0#
#24
1#
b000000000000000000000001000 &
#25
0#
#26
1#
b000000000000000000000001001 &
#27
0#
#28
1#
b000000000000000000000001010 &
#29
0#
#30
1#
b000000000000000000000001011 &
#31
0#
#32
1#
b000000000000000000000001100 &
#33
0#
#34
1#
b000000000000000000000001101 &
#35
0#
#36
1#
b000000000000000000000001110 &
#37
0#
#38
1#
b000000000000000000000001111 &
#39
0#
#40
1#
b000000000000000000000010000 &
#41
0#
#42
1#
b000000000000000000000010001 &
#43
0#
#44
1#
b000000000000000000000010010 &
#45
0#
#46
1#
b000000000000000000000010011 &
#47
0#
#48
1#
b000000000000000000000010100 &
#49
0#
#50
1#
b000000000000000000000010101 &
#51
0#
#52
1#
b000000000000000000000010110 &
#53
0#
#54
1#
b000000000000000000000010111 &
#55
0#
#56
1#
b000000000000000000000011000 &
#57
0#
#58
1#
b000000000000000000000011001 &
#59
0#
#60
1#
b000000000000000000000011010 &
#61
0#
#62
1#
b000000000000000000000011011 &
#63
0#
#64
1#
b000000000000000000000011100 &
#65
0#
#66
1#
b000000000000000000000011101 &
#67
0#
#68
1#
b000000000000000000000011110 &
#69
0#
#70
1#
b000000000000000000000011111 &
#71
0#
#72
1#
b000000000000000000000100000 &
#73
0#
#74
1#
b000000000000000000000100001 &
#75
0#
#76
1#
b000000000000000000000100010 &
#77
0#
#78
1#
b000000000000000000000100011 &
#79
0#
#80
1#
b000000000000000000000100100 &
#81
0#
#82
1#
b000000000000000000000100101 &
#83
0#
#84
1#
b000000000000000000000100110 &
#85
0#
#86
1#
b000000000000000000000100111 &
#87
0#
#88
1#
b000000000000000000000101000 &
#89
0#
#90
1#
b000000000000000000000101001 &
#91
0#
#92
1#
b000000000000000000000101010 &
#93
0#
#94
1#
b000000000000000000000101011 &
#95
0#
#96
1#
b000000000000000000000101100 &
#97
0#
#98
1#
b000000000000000000000101101 &
#99
0#
#100
1#
b000000000000000000000101110 &
#101
0#
#102
1#
b000000000000000000000101111 &
#103
0#
#104
1#
b000000000000000000000110000 &
#105
0#
#106
1#
b000000000000000000000110001 &
#107
0#
#108
1#
b000000000000000000000110010 &
#109
0#
#110
1#
b000000000000000000000110011 &
#111
0#
#112
1#
b000000000000000000000110100 &
#113
0#
#114
1#
b000000000000000000000110101 &
#115
0#
#116
1#
b000000000000000000000110110 &
#117
0#
#118
1#
b000000000000000000000110111 &
#119
0#
#120
1#
b000000000000000000000111000 &
#121
0#
#122
1#
b000000000000000000000111001 &
#123
0#
#124
1#
b000000000000000000000111010 &
#125
0#
#126
1#
b000000000000000000000111011 &
#127
0#
#128
1#
b000000000000000000000111100 &
#129
0#
#130
1#
b000000000000000000000111101 &
#131
0#
#132
1#
b000000000000000000000111110 &
#133
0#
#134
1#
b000000000000000000000111111 &
#135
0#
#136
1#
b000000000000000000001000000 &
#137
0#
#138
1#
b000000000000000000001000001 &
#139
0#
#140
1#
b000000000000000000001000010 &
#141
0#
#142
1#
b000000000000000000001000011 &
#143
0#
#144
1#
b000000000000000000001000100 &
#145
0#
#146
1#
b000000000000000000001000101 &
#147
0#
#148
1#
b000000000000000000001000110 &
#149
0#
#150
1#
b000000000000000000001000111 &
#151
0#
#152
1#
b000000000000000000001001000 &
#153
0#
#154
1#
b000000000000000000001001001 &
#155
0#
#156
1#
b000000000000000000001001010 &
#157
0#
#158
1#
b000000000000000000001001011 &
#159
0#
#160
1#
b000000000000000000001001100 &
#161
0#
#162
1#
b000000000000000000001001101 &
#163
0#
#164
1#
b000000000000000000001001110 &
#165
0#
#166
1#
b000000000000000000001001111 &
#167
0#
#168
1#
b000000000000000000001010000 &
#169
0#
#170
1#
b000000000000000000001010001 &
#171
0#
#172
1#
b000000000000000000001010010 &
#173
0#
#174
1#
b000000000000000000001010011 &
#175
0#
#176
1#
b000000000000000000001010100 &
#177
0#
#178
1#
b000000000000000000001010101 &
#179
0#
#180
1#
b000000000000000000001010110 &
#181
0#
#182
1#
b000000000000000000001010111 &
#183
0#
#184
1#
b000000000000000000001011000 &
#185
0#
#186
1#
b000000000000000000001011001 &
#187
0#
#188
1#
b000000000000000000001011010 &
#189
0#
#190
1#
b000000000000000000001011011 &
#191
0#
#192
1#
b000000000000000000001011100 &
#193
0#
#194
1#
b000000000000000000001011101 &
#195
0#
#196
1#
b000000000000000000001011110 &
#197
0#
#198
1#
b000000000000000000001011111 &
#199
0#
#200
1#
b000000000000000000001100000 &
#201
0#
#202
1#
b000000000000000000001100001 &
#203
0#
#204
1#
b000000000000000000001100010 &
#205
0#
#206
1#
b000000000000000000001100011 &
#207
0#
#208
1#
b000000000000000000001100100 &
